﻿"VLML","Vegetarian Lacto-Ovo Meal","en_GB"
"VGML","Vegetarian Meal","en_GB"
"BLML","Bland Meal","en_GB"
"VJML","Vegetarian Jain Meal","en_GB"
"SFML","Seafood Meal","en_GB"
"LCML","Low Calorie Meal","en_GB"
"FPML","Fruit Platter Meal","en_GB"
"SPML","Special Meal","en_GB"
"CHML","Child Meal","en_GB"
"LFML","Low Fat Meal","en_GB"
"HNML","Hindu Meal","en_GB"
"NLML","Low Lactose Meal","en_GB"
"VOML","Vegetarian Oriental Meal","en_GB"
"DBML","Diabetic Meal","en_GB"
"MOML","Moslem Meal","en_GB"
"RVML","Raw Vegetable Meal","en_GB"
"GFML","Gluten Free Meal","en_GB"
"LPML","Low Protein Meal","en_GB"
"BBML","Baby Meal","en_GB"
"PRML","Low Purine Meal","en_GB"
"LSML","Low Sodium Meal","en_GB"
"KSML","Kosher Meal","en_GB"
"AVML","Asian Vegetarian Meal","en_GB"
"VLML","وجبة لكتو- اوفو النباتية","ar_AE"
"VGML","الوجبة النباتية","ar_AE"
"BLML","وجبه خفيفة","ar_AE"
"VJML","وجبة جاين النباتية","ar_AE"
"SFML","وجبة مأكولات بحرية","ar_AE"
"LCML","وجبة منخفضة السعرات الحرارية","ar_AE"
"FPML","وجبة الفواكه المتنوعة","ar_AE"
"SPML","وجبة خاصة","ar_AE"
"CHML","وجبة أطفال/نقانق","ar_AE"
"LFML","وجبة منخفضة الدهون","ar_AE"
"HNML","وجبة هندوسية","ar_AE"
"NLML","وجبة منخفضة اللاكتوز","ar_AE"
"VOML","وجبة نباتية شرقية","ar_AE"
"DBML","وجبة مخصصة لمرضى السكر","ar_AE"
"MOML","وجبة حلال طبقاً للدين الإسلامي","ar_AE"
"RVML","وجبة الخضار النيئة","ar_AE"
"GFML","الوجبة الخالية من الجلوتين","ar_AE"
"LPML","وجبة منخفضة البروتين","ar_AE"
"BBML","وجبة أطفال","ar_AE"
"PRML","وجبة منخفضة البورين","ar_AE"
"LSML","الوجبة القليلة الصوديوم","ar_AE"
"KSML","وجبة كوشر","ar_AE"
"AVML","وجبة نباتية آسيوية","ar_AE"
"VLML","Vegetarische Lakto-Ovo-Mahlzeit","de_DE"
"VGML","Vegetarische Mahlzeit","de_DE"
"BLML","Schonkost","de_DE"
"VJML","Vegetarische Jaina-Mahlzeit","de_DE"
"SFML","Seefischgericht","de_DE"
"LCML","Kalorienarme Mahlzeit","de_DE"
"FPML","Obstgericht","de_DE"
"SPML","Spezialgericht","de_DE"
"CHML","Kinderkost","de_DE"
"LFML","Fettarme Mahlzeit","de_DE"
"HNML","Hindugerechte Mahlzeit","de_DE"
"NLML","Laktosearme Mahlzeit","de_DE"
"VOML","Orientalische vegetarische Mahlzeit","de_DE"
"DBML","Diabetikerfreundlich","de_DE"
"MOML","Moslemgerechte Mahlzeit","de_DE"
"RVML","Rohkost-Mahlzeit","de_DE"
"GFML","Glutenfreie Mahlzeit","de_DE"
"LPML","Eiweißarme Kost","de_DE"
"BBML","Babykost","de_DE"
"PRML","Purinarme Kost","de_DE"
"LSML","Salzarme Mahlzeit","de_DE"
"KSML","Koschere Mahlzeit","de_DE"
"AVML","Asiatisch-vegetarische Mahlzeit","de_DE"
"VLML","Χορτοφαγικό γεύμα με γαλακτοκομικά και αυγά","el_GR"
"VGML","Χορτοφαγικό γεύμα","el_GR"
"BLML","Γεύμα χωρίς μπαχαρικά","el_GR"
"VJML","Γεύμα για χορτοφάγους Jain","el_GR"
"SFML","Γεύμα θαλασσινών","el_GR"
"LCML","Γεύμα με χαμηλές θερμίδες","el_GR"
"FPML","Γεύμα ποικιλία φρούτων","el_GR"
"SPML","Ειδικό γεύμα","el_GR"
"CHML","Παιδικό γεύμα","el_GR"
"LFML","Γεύμα με χαμηλά λιπαρά","el_GR"
"HNML","Γεύμα Ινδουιστών","el_GR"
"NLML","Γεύμα χαμηλό σε λακτόζη","el_GR"
"VOML","Γεύμα Oriental για χορτοφάγους","el_GR"
"DBML","Γεύμα για διαβητικούς","el_GR"
"MOML","Μουσουλμανικό γεύμα","el_GR"
"RVML","Γεύμα ωμών λαχανικών","el_GR"
"GFML","Γεύμα χωρίς γλουτένη","el_GR"
"LPML","Γεύμα χαμηλό σε πρωτεΐνες","el_GR"
"BBML","Βρεφικό γεύμα","el_GR"
"PRML","Γεύμα χαμηλό σε πουρίνες","el_GR"
"LSML","Γεύμα χαμηλού νατρίου","el_GR"
"KSML","Γεύμα Kosher","el_GR"
"AVML","Ασιατικό χορτοφαγικό γεύμα","el_GR"
"VLML","Comida ovo-lacto-vegetariana","es_ES"
"VGML","Comida vegetariana","es_ES"
"BLML","Comida suave","es_ES"
"VJML","Comida vegetariana jainita","es_ES"
"SFML","Marisco","es_ES"
"LCML","Comida baja en calorías","es_ES"
"FPML","Surtido de frutas","es_ES"
"SPML","Comida especial","es_ES"
"CHML","Comida para niños","es_ES"
"LFML","Comida baja en grasas","es_ES"
"HNML","Comida hindú","es_ES"
"NLML","Comida baja en lactosa","es_ES"
"VOML","Comida vegetariana oriental","es_ES"
"DBML","Comida para diabéticos","es_ES"
"MOML","Comida musulmana","es_ES"
"RVML","Comidas a base de vegetales crudos","es_ES"
"GFML","Comida sin gluten","es_ES"
"LPML","Comida baja en proteínas","es_ES"
"BBML","Comida para bebés","es_ES"
"PRML","Comida baja en purina","es_ES"
"LSML","Comida baja en sodio","es_ES"
"KSML","Comida kosher","es_ES"
"AVML","Comida vegetariana asiática","es_ES"
"VLML","Repas lacto-ovo végétarien","fr_FR"
"VGML","Repas végétarien","fr_FR"
"BLML","Repas sans épices","fr_FR"
"VJML","Repas jaïn végétarien","fr_FR"
"SFML","Repas à base de poisson et/ou fruits de mer","fr_FR"
"LCML","Repas basses calories","fr_FR"
"FPML","Repas à base de fruits","fr_FR"
"SPML","Repas spécial","fr_FR"
"CHML","Repas pour enfant","fr_FR"
"LFML","Repas pauvre en matières grasses","fr_FR"
"HNML","Repas hindou","fr_FR"
"NLML","Repas pauvre en lactose","fr_FR"
"VOML","Repas végétarien oriental","fr_FR"
"DBML","Repas pour diabétique","fr_FR"
"MOML","Repas musulman","fr_FR"
"RVML","Repas de légumes crus","fr_FR"
"GFML","Repas sans gluten","fr_FR"
"LPML","Repas pauvre en protéines","fr_FR"
"BBML","Repas pour bébé","fr_FR"
"PRML","Repas pauvre en purine","fr_FR"
"LSML","Repas faible en sodium","fr_FR"
"KSML","Repas kasher","fr_FR"
"AVML","Repas végétarien asiatique","fr_FR"
"VLML","Menu lattovo-vegetariano","it_IT"
"VGML","Menu vegetariano","it_IT"
"BLML","Pasto leggero","it_IT"
"VJML","Pasto vegetariano Jain","it_IT"
"SFML","Pasto a base di pesce","it_IT"
"LCML","Pasto ipocalorico","it_IT"
"FPML","Pasto a base di frutta","it_IT"
"SPML","Pasto speciale","it_IT"
"CHML","Pasto per bambini","it_IT"
"LFML","Pasto a basso contenuto di grassi","it_IT"
"HNML","Pasto indù","it_IT"
"NLML","Menu a basso contenuto di lattosio","it_IT"
"VOML","Pasto vegetariano orientale","it_IT"
"DBML","Pasto per diabetici","it_IT"
"MOML","Pasto per musulmani","it_IT"
"RVML","Menu a base di verdure crude","it_IT"
"GFML","Menu senza glutine","it_IT"
"LPML","Pasto ipoproteico","it_IT"
"BBML","Pasto per neonati","it_IT"
"PRML","Pasto ipopurinico","it_IT"
"LSML","Menu a basso contenuto di sodio","it_IT"
"KSML","Pasto kosher","it_IT"
"AVML","Menu asiatico vegetariano","it_IT"
"VLML","ベジタリアンラクオボミール","ja_JP"
"VGML","ベジタリアンミール","ja_JP"
"BLML","ブランドミール","ja_JP"
"VJML","ベジタリアン ジャイナミール","ja_JP"
"SFML","シーフードミール","ja_JP"
"LCML","低カロリーミール","ja_JP"
"FPML","フルーツプレートミール","ja_JP"
"SPML","特別食","ja_JP"
"CHML","チャイルドミール","ja_JP"
"LFML","低脂肪ミール","ja_JP"
"HNML","ヒンズーミール","ja_JP"
"NLML","低ラクトースミール","ja_JP"
"VOML","オリエンタルベジタリアンミール","ja_JP"
"DBML","糖尿病ミール","ja_JP"
"MOML","ムスリムミール","ja_JP"
"RVML","生野菜ミール","ja_JP"
"GFML","グルテンフリーミール","ja_JP"
"LPML","低タンパク質食","ja_JP"
"BBML","ベビーミール","ja_JP"
"PRML","低プリン体食","ja_JP"
"LSML","減塩ミール","ja_JP"
"KSML","コーシャーミール","ja_JP"
"AVML","アジアンベジタリアンミール","ja_JP"
"VLML","유란 채식","ko_KR"
"VGML","채식","ko_KR"
"BLML","연식","ko_KR"
"VJML","인도 자이나교 채식","ko_KR"
"SFML","해산물식","ko_KR"
"LCML","저열량식","ko_KR"
"FPML","과일식","ko_KR"
"SPML","특수식","ko_KR"
"CHML","어린이식","ko_KR"
"LFML","저지방식","ko_KR"
"HNML","힌두교식","ko_KR"
"NLML","유당제한식","ko_KR"
"VOML","동양 채식","ko_KR"
"DBML","당뇨식","ko_KR"
"MOML","이슬람식","ko_KR"
"RVML","생야채식","ko_KR"
"GFML","글루텐 제한식","ko_KR"
"LPML","저단백식","ko_KR"
"BBML","유아식","ko_KR"
"PRML","저퓨린식","ko_KR"
"LSML","저염식","ko_KR"
"KSML","유대교식","ko_KR"
"AVML","아시아식 채식주의 식단","ko_KR"
"VLML","Vegetarische maaltijd met melk en ei","nl_NL"
"VGML","Vegetarische maaltijd","nl_NL"
"BLML","Milde maaltijd","nl_NL"
"VJML","Vegetarische jaïnistisch maaltijd","nl_NL"
"SFML","Vis- en schaaldierenmaaltijd","nl_NL"
"LCML","Caloriearme maaltijd","nl_NL"
"FPML","Fruitmaaltijd","nl_NL"
"SPML","Speciale maaltijd","nl_NL"
"CHML","Kindermaaltijd","nl_NL"
"LFML","Vetarme maaltijd","nl_NL"
"HNML","Hindoestaanse maaltijd","nl_NL"
"NLML","Lactosevrije maaltijd","nl_NL"
"VOML","Vegetarische oosterse maaltijd","nl_NL"
"DBML","Diabetische maaltijd","nl_NL"
"MOML","Moslimmaaltijd","nl_NL"
"RVML","Maaltijd van rauwe groenten","nl_NL"
"GFML","Glutenvrije maaltijd","nl_NL"
"LPML","Eiwitarme maaltijd","nl_NL"
"BBML","Babymaaltijd","nl_NL"
"PRML","Purine-arme maaltijd","nl_NL"
"LSML","Zoutarme maaltijd","nl_NL"
"KSML","Koosjere maaltijd","nl_NL"
"AVML","Aziatische vegetarische maaltijd","nl_NL"
"VLML","Refeição Lacto-Ovo-Vegetariana","pt_BR"
"VGML","Refeição Vegetariana","pt_BR"
"BLML","Refeição sem sal","pt_BR"
"VJML","Refeição vegetariana jainista","pt_BR"
"SFML","Refeição com frutos-do-mar","pt_BR"
"LCML","Refeição com baixas calorias","pt_BR"
"FPML","Prato de frutas","pt_BR"
"SPML","Refeição especial","pt_BR"
"CHML","Refeição infantil","pt_BR"
"LFML","Refeição com baixo teor de gorduras","pt_BR"
"HNML","Refeição hindu","pt_BR"
"NLML","Refeição com baixo teor de lactose","pt_BR"
"VOML","Refeição vegetariana oriental","pt_BR"
"DBML","Refeição para diabéticos","pt_BR"
"MOML","Refeição muçulmana","pt_BR"
"RVML","Refeição com Vegetais Crus","pt_BR"
"GFML","Refeição Sem Glúten","pt_BR"
"LPML","Refeição com pouca proteína","pt_BR"
"BBML","Refeição para bebês","pt_BR"
"PRML","Refeições com pouca purina","pt_BR"
"LSML","Refeição com Baixo Teor de Sódio","pt_BR"
"KSML","Refeição kosher","pt_BR"
"AVML","Refeição Vegetariana Asiática","pt_BR"
"VLML","Оволактовегетарианское питание","ru_RU"
"VGML","Вегетарианское питание","ru_RU"
"BLML","Мягкое питание","ru_RU"
"VJML","Вегетарианское джайнское питание","ru_RU"
"SFML","Питание из морепродуктов","ru_RU"
"LCML","Низкокалорийное питание","ru_RU"
"FPML","Фруктовое питание","ru_RU"
"SPML","Специальное питание","ru_RU"
"CHML","Детское питание","ru_RU"
"LFML","Питание с низким содержанием жира","ru_RU"
"HNML","Индусское питание","ru_RU"
"NLML","Питание с низким содержанием лактозы","ru_RU"
"VOML","Вегетарианское восточное питание","ru_RU"
"DBML","Диабетическое питание","ru_RU"
"MOML","Мусульманское питание","ru_RU"
"RVML","Питание на основе сырых овощей","ru_RU"
"GFML","Питание без содержания глютена","ru_RU"
"LPML","Блюдо с низким содержанием белка","ru_RU"
"BBML","Питание для грудных детей","ru_RU"
"PRML","Блюдо с низким содержанием пурина","ru_RU"
"LSML","Бессолевое питание","ru_RU"
"KSML","Кошерное питание","ru_RU"
"AVML","Азиатское вегетарианское питание","ru_RU"
"VLML","มังสวิรัติ Lacto - Ovo อาหาร","th_TH"
"VGML","อาหารมังสวิรัติ","th_TH"
"BLML","อาหารจืด","th_TH"
"VJML","มังสวิรัติเจน","th_TH"
"SFML","อาหารทะเล","th_TH"
"LCML","อาหารแคลอรี่ต่ำ","th_TH"
"FPML","เซ็ตผลไม้","th_TH"
"SPML","เมนูพิเศษ","th_TH"
"CHML","อาหารเด็ก","th_TH"
"LFML","อาหารไขมันต่ำ","th_TH"
"HNML","อาหารสำหรับชาวฮินดู","th_TH"
"NLML","อาหารแลคโตสต่ำ","th_TH"
"VOML","มังสวิรัติเมนูตะวันออก","th_TH"
"DBML","อาหารสำหรับผู้ป่วยเบาหวาน","th_TH"
"MOML","อาหารมุสลิม","th_TH"
"RVML","อาหารจากผักดิบ","th_TH"
"GFML","อาหารปลอดกลูเทน","th_TH"
"LPML","อาหารโปรตีนต่ำ ","th_TH"
"BBML","อาหารสำหรับเด็กเล็ก","th_TH"
"PRML","อาหารพิวรีนต่ำ","th_TH"
"LSML","อาหารโซเดียมต่ำ","th_TH"
"KSML","เมนูโคเชอร์","th_TH"
"AVML","อาหารมังสวิรัติเอเชีย","th_TH"
"VLML","Vejetaryen Lakto-Ovo Yemeği","tr_TR"
"VGML","Vejetaryen Yemek","tr_TR"
"BLML","Hafif Yemek","tr_TR"
"VJML","Vejeteryan Hindu Yemek","tr_TR"
"SFML","Deniz Mahsülleri Yemeği","tr_TR"
"LCML","Düşük Kalorili Yemek","tr_TR"
"FPML","Meyve Tabağı","tr_TR"
"SPML","Spesiyal Yemek","tr_TR"
"CHML","Çocuk Yemeği","tr_TR"
"LFML","Yağsız Yemek","tr_TR"
"HNML","Hint Yemeği","tr_TR"
"NLML","Düşük Laktozlu Yemek","tr_TR"
"VOML","Vejeteryan Doğu Yemeği","tr_TR"
"DBML","Diyabetik Yemek","tr_TR"
"MOML","Müslüman Yemeği","tr_TR"
"RVML","Çiğ Sebze Yemeği","tr_TR"
"GFML","Glütensiz Yemek","tr_TR"
"LPML","Düşük Proteinli Yemek","tr_TR"
"BBML","Bebek Yemeği","tr_TR"
"PRML","Düşük Pürinli Yemek","tr_TR"
"LSML","Düşük Sodyumlu Yemek","tr_TR"
"KSML","Koşer Yemek","tr_TR"
"AVML","Asya Vejetaryen Yemeği","tr_TR"
"VLML","含奶蛋类素食餐","zh_CN"
"VGML","素食餐","zh_CN"
"BLML","清淡餐","zh_CN"
"VJML","耆那教餐","zh_CN"
"SFML","海鲜餐","zh_CN"
"LCML","低卡路里餐","zh_CN"
"FPML","水果餐","zh_CN"
"SPML","特殊餐食","zh_CN"
"CHML","儿童餐","zh_CN"
"LFML","低脂肪餐","zh_CN"
"HNML","印度教餐","zh_CN"
"NLML","低乳糖餐","zh_CN"
"VOML","东方素餐","zh_CN"
"DBML","糖尿病餐","zh_CN"
"MOML","穆斯林餐","zh_CN"
"RVML","生素食餐点","zh_CN"
"GFML","无麸质餐食","zh_CN"
"LPML","低蛋白餐","zh_CN"
"BBML","婴儿餐","zh_CN"
"PRML","低嘌呤餐","zh_CN"
"LSML","低钠餐食","zh_CN"
"KSML","犹太教餐","zh_CN"
"AVML","亚洲素食餐","zh_CN"
"AVML,Asian Vegetarian Meal","en_AE"
"BBML,Baby Meal","en_AE"
"BLML,Bland Meal","en_AE"
"CHML,Child Meal","en_AE"
"DBML,Diabetic Meal","en_AE"
"FPML,Fruit Platter Meal","en_AE"
"GFML,Fruit Platter Meal","en_AE"
"HNML,Fruit Platter Meal","en_AE"
"KSML,Kosher Meal","en_AE"
"LCML,Low Calorie Meal","en_AE"
"LFML,Low Fat Meal","en_AE"
"NLML,Low Lactose Meal","en_AE"
"LSML,Low Sodium Meal","en_AE"
"RVML,Raw Vegetable Meal","en_AE"
"VJML,Vegetarian Jain Meal","en_AE"
"VLML,Vegetarian Lacto-Ovo Meal","en_AE"
"VGML,Vegetarian Meal","en_AE"
"VOML,Vegetarian Oriental Meal","en_AE"